(?i:string) 	 ECHO; str.append("\'"); str.append(yytext,yytext+yyleng); str.append("' " , " "); 
(?i:integer) 	 ECHO; str.append("\'"); str.append(yytext,yytext+yyleng); str.append("' " , " "); 
(?i:write) 	 ECHO; str.append("\'"); str.append(yytext,yytext+yyleng); str.append("' " , " "); 
(?i:read) 	 ECHO; str.append("\'"); str.append(yytext,yytext+yyleng); str.append("' " , " "); 
(?i:writeln) 	 ECHO; str.append("\'"); str.append(yytext,yytext+yyleng); str.append("' " , " "); 
(?i:readln) 	 ECHO; str.append("\'"); str.append(yytext,yytext+yyleng); str.append("' " , " "); 
(?i:and[ \t]*then) 	 ECHO; str.append("\'"); str.append(yytext,yytext+yyleng); str.append("' " , " "); 
(?i:or[\t ]*else) 	 ECHO; str.append("\'"); str.append(yytext,yytext+yyleng); str.append("' " , " "); 
(?i:if) 	 ECHO; str.append("\'"); str.append(yytext,yytext+yyleng); str.append("' " , " "); 
(?i:then) 	 ECHO; str.append("\'"); str.append(yytext,yytext+yyleng); str.append("' " , " "); 
(?i:Begin) 	 ECHO; str.append("\'"); str.append(yytext,yytext+yyleng); str.append("' " , " "); 
(?i:End) 	 ECHO; str.append("\'"); str.append(yytext,yytext+yyleng); str.append("' " , " "); 
(?i:procedure) 	 ECHO; str.append("\'"); str.append(yytext,yytext+yyleng); str.append("' " , " "); 
(?i:function) 	 ECHO; str.append("\'"); str.append(yytext,yytext+yyleng); str.append("' " , " "); 
(?i:Program) 	 ECHO; str.append("\'"); str.append(yytext,yytext+yyleng); str.append("' " , " "); 
(?i:Absolute) 	 ECHO; str.append("\'"); str.append(yytext,yytext+yyleng); str.append("' " , " "); 
(?i:Abstract) 	 ECHO; str.append("\'"); str.append(yytext,yytext+yyleng); str.append("' " , " "); 
(?i:All) 	 ECHO; str.append("\'"); str.append(yytext,yytext+yyleng); str.append("' " , " "); 
(?i:And) 	 ECHO; str.append("\'"); str.append(yytext,yytext+yyleng); str.append("' " , " "); 
(?i:And_then) 	 ECHO; str.append("\'"); str.append(yytext,yytext+yyleng); str.append("' " , " "); 
(?i:Array) 	 ECHO; str.append("\'"); str.append(yytext,yytext+yyleng); str.append("' " , " "); 
(?i:Asm) 	 ECHO; str.append("\'"); str.append(yytext,yytext+yyleng); str.append("' " , " "); 
(?i:Begin) 	 ECHO; str.append("\'"); str.append(yytext,yytext+yyleng); str.append("' " , " "); 
(?i:Bindable) 	 ECHO; str.append("\'"); str.append(yytext,yytext+yyleng); str.append("' " , " "); 
(?i:Case) 	 ECHO; str.append("\'"); str.append(yytext,yytext+yyleng); str.append("' " , " "); 
(?i:Class) 	 ECHO; str.append("\'"); str.append(yytext,yytext+yyleng); str.append("' " , " "); 
(?i:Const) 	 ECHO; str.append("\'"); str.append(yytext,yytext+yyleng); str.append("' " , " "); 
(?i:Constructor) 	 ECHO; str.append("\'"); str.append(yytext,yytext+yyleng); str.append("' " , " "); 
(?i:Destructor) 	 ECHO; str.append("\'"); str.append(yytext,yytext+yyleng); str.append("' " , " "); 
(?i:Div) 	 ECHO; str.append("\'"); str.append(yytext,yytext+yyleng); str.append("' " , " "); 
(?i:Do) 	 ECHO; str.append("\'"); str.append(yytext,yytext+yyleng); str.append("' " , " "); 
(?i:Downto) 	 ECHO; str.append("\'"); str.append(yytext,yytext+yyleng); str.append("' " , " "); 
(?i:Else) 	 ECHO; str.append("\'"); str.append(yytext,yytext+yyleng); str.append("' " , " "); 
(?i:End) 	 ECHO; str.append("\'"); str.append(yytext,yytext+yyleng); str.append("' " , " "); 
(?i:Export) 	 ECHO; str.append("\'"); str.append(yytext,yytext+yyleng); str.append("' " , " "); 
(?i:File) 	 ECHO; str.append("\'"); str.append(yytext,yytext+yyleng); str.append("' " , " "); 
(?i:For) 	 ECHO; str.append("\'"); str.append(yytext,yytext+yyleng); str.append("' " , " "); 
(?i:Function) 	 ECHO; str.append("\'"); str.append(yytext,yytext+yyleng); str.append("' " , " "); 
(?i:Goto) 	 ECHO; str.append("\'"); str.append(yytext,yytext+yyleng); str.append("' " , " "); 
(?i:If) 	 ECHO; str.append("\'"); str.append(yytext,yytext+yyleng); str.append("' " , " "); 
(?i:Import) 	 ECHO; str.append("\'"); str.append(yytext,yytext+yyleng); str.append("' " , " "); 
(?i:Implementation) 	 ECHO; str.append("\'"); str.append(yytext,yytext+yyleng); str.append("' " , " "); 
(?i:Inherited) 	 ECHO; str.append("\'"); str.append(yytext,yytext+yyleng); str.append("' " , " "); 
(?i:In) 	 ECHO; str.append("\'"); str.append(yytext,yytext+yyleng); str.append("' " , " "); 
(?i:Inline) 	 ECHO; str.append("\'"); str.append(yytext,yytext+yyleng); str.append("' " , " "); 
(?i:Interface) 	 ECHO; str.append("\'"); str.append(yytext,yytext+yyleng); str.append("' " , " "); 
(?i:Is) 	 ECHO; str.append("\'"); str.append(yytext,yytext+yyleng); str.append("' " , " "); 
(?i:Label) 	 ECHO; str.append("\'"); str.append(yytext,yytext+yyleng); str.append("' " , " "); 
(?i:Mod) 	 ECHO; str.append("\'"); str.append(yytext,yytext+yyleng); str.append("' " , " "); 
(?i:Module) 	 ECHO; str.append("\'"); str.append(yytext,yytext+yyleng); str.append("' " , " "); 
(?i:Nil) 	 ECHO; str.append("\'"); str.append(yytext,yytext+yyleng); str.append("' " , " "); 
(?i:Not) 	 ECHO; str.append("\'"); str.append(yytext,yytext+yyleng); str.append("' " , " "); 
(?i:Object) 	 ECHO; str.append("\'"); str.append(yytext,yytext+yyleng); str.append("' " , " "); 
(?i:Of) 	 ECHO; str.append("\'"); str.append(yytext,yytext+yyleng); str.append("' " , " "); 
(?i:Only) 	 ECHO; str.append("\'"); str.append(yytext,yytext+yyleng); str.append("' " , " "); 
(?i:Operator) 	 ECHO; str.append("\'"); str.append(yytext,yytext+yyleng); str.append("' " , " "); 
(?i:Or) 	 ECHO; str.append("\'"); str.append(yytext,yytext+yyleng); str.append("' " , " "); 
(?i:Or_else) 	 ECHO; str.append("\'"); str.append(yytext,yytext+yyleng); str.append("' " , " "); 
(?i:Otherwise) 	 ECHO; str.append("\'"); str.append(yytext,yytext+yyleng); str.append("' " , " "); 
(?i:Packed) 	 ECHO; str.append("\'"); str.append(yytext,yytext+yyleng); str.append("' " , " "); 
(?i:Pow) 	 ECHO; str.append("\'"); str.append(yytext,yytext+yyleng); str.append("' " , " "); 
(?i:Procedure) 	 ECHO; str.append("\'"); str.append(yytext,yytext+yyleng); str.append("' " , " "); 
(?i:Program) 	 ECHO; str.append("\'"); str.append(yytext,yytext+yyleng); str.append("' " , " "); 
(?i:Property) 	 ECHO; str.append("\'"); str.append(yytext,yytext+yyleng); str.append("' " , " "); 
(?i:Protected) 	 ECHO; str.append("\'"); str.append(yytext,yytext+yyleng); str.append("' " , " "); 
(?i:Qualified) 	 ECHO; str.append("\'"); str.append(yytext,yytext+yyleng); str.append("' " , " "); 
(?i:Record) 	 ECHO; str.append("\'"); str.append(yytext,yytext+yyleng); str.append("' " , " "); 
(?i:Repeat) 	 ECHO; str.append("\'"); str.append(yytext,yytext+yyleng); str.append("' " , " "); 
(?i:Restricted) 	 ECHO; str.append("\'"); str.append(yytext,yytext+yyleng); str.append("' " , " "); 
(?i:Set) 	 ECHO; str.append("\'"); str.append(yytext,yytext+yyleng); str.append("' " , " "); 
(?i:Shl) 	 ECHO; str.append("\'"); str.append(yytext,yytext+yyleng); str.append("' " , " "); 
(?i:Shr) 	 ECHO; str.append("\'"); str.append(yytext,yytext+yyleng); str.append("' " , " "); 
(?i:Then) 	 ECHO; str.append("\'"); str.append(yytext,yytext+yyleng); str.append("' " , " "); 
(?i:To) 	 ECHO; str.append("\'"); str.append(yytext,yytext+yyleng); str.append("' " , " "); 
(?i:Type) 	 ECHO; str.append("\'"); str.append(yytext,yytext+yyleng); str.append("' " , " "); 
(?i:Unit) 	 ECHO; str.append("\'"); str.append(yytext,yytext+yyleng); str.append("' " , " "); 
(?i:Until) 	 ECHO; str.append("\'"); str.append(yytext,yytext+yyleng); str.append("' " , " "); 
(?i:Uses) 	 ECHO; str.append("\'"); str.append(yytext,yytext+yyleng); str.append("' " , " "); 
(?i:Value) 	 ECHO; str.append("\'"); str.append(yytext,yytext+yyleng); str.append("' " , " "); 
(?i:Var) 	 ECHO; str.append("\'"); str.append(yytext,yytext+yyleng); str.append("' " , " "); 
(?i:View) 	 ECHO; str.append("\'"); str.append(yytext,yytext+yyleng); str.append("' " , " "); 
(?i:Virtual) 	 ECHO; str.append("\'"); str.append(yytext,yytext+yyleng); str.append("' " , " "); 
(?i:While) 	 ECHO; str.append("\'"); str.append(yytext,yytext+yyleng); str.append("' " , " "); 
(?i:With) 	 ECHO; str.append("\'"); str.append(yytext,yytext+yyleng); str.append("' " , " "); 
(?i:Xor) 	 ECHO; str.append("\'"); str.append(yytext,yytext+yyleng); str.append("' " , " "); 
(?i:Maxint) 	 ECHO; str.append("\'"); str.append(yytext,yytext+yyleng); str.append("' " , " "); 
(?i:False) 	 ECHO; str.append("\'"); str.append(yytext,yytext+yyleng); str.append("' " , " "); 
(?i:True) 	 ECHO; str.append("\'"); str.append(yytext,yytext+yyleng); str.append("' " , " "); 
(?i:Input) 	 ECHO; str.append("\'"); str.append(yytext,yytext+yyleng); str.append("' " , " "); 
(?i:Output) 	 ECHO; str.append("\'"); str.append(yytext,yytext+yyleng); str.append("' " , " "); 
(?i:Rewrite) 	 ECHO; str.append("\'"); str.append(yytext,yytext+yyleng); str.append("' " , " "); 
(?i:Reset) 	 ECHO; str.append("\'"); str.append(yytext,yytext+yyleng); str.append("' " , " "); 
(?i:Put) 	 ECHO; str.append("\'"); str.append(yytext,yytext+yyleng); str.append("' " , " "); 
(?i:Get) 	 ECHO; str.append("\'"); str.append(yytext,yytext+yyleng); str.append("' " , " "); 
(?i:Write) 	 ECHO; str.append("\'"); str.append(yytext,yytext+yyleng); str.append("' " , " "); 
(?i:Read) 	 ECHO; str.append("\'"); str.append(yytext,yytext+yyleng); str.append("' " , " "); 
(?i:Writeln) 	 ECHO; str.append("\'"); str.append(yytext,yytext+yyleng); str.append("' " , " "); 
(?i:Readln) 	 ECHO; str.append("\'"); str.append(yytext,yytext+yyleng); str.append("' " , " "); 
(?i:Page) 	 ECHO; str.append("\'"); str.append(yytext,yytext+yyleng); str.append("' " , " "); 
(?i:New) 	 ECHO; str.append("\'"); str.append(yytext,yytext+yyleng); str.append("' " , " "); 
(?i:Dispose) 	 ECHO; str.append("\'"); str.append(yytext,yytext+yyleng); str.append("' " , " "); 
(?i:Abs) 	 ECHO; str.append("\'"); str.append(yytext,yytext+yyleng); str.append("' " , " "); 
(?i:Sqr) 	 ECHO; str.append("\'"); str.append(yytext,yytext+yyleng); str.append("' " , " "); 
(?i:Sin) 	 ECHO; str.append("\'"); str.append(yytext,yytext+yyleng); str.append("' " , " "); 
(?i:Cos) 	 ECHO; str.append("\'"); str.append(yytext,yytext+yyleng); str.append("' " , " "); 
(?i:Exp) 	 ECHO; str.append("\'"); str.append(yytext,yytext+yyleng); str.append("' " , " "); 
(?i:Ln) 	 ECHO; str.append("\'"); str.append(yytext,yytext+yyleng); str.append("' " , " "); 
(?i:Sqrt) 	 ECHO; str.append("\'"); str.append(yytext,yytext+yyleng); str.append("' " , " "); 
(?i:Arctan) 	 ECHO; str.append("\'"); str.append(yytext,yytext+yyleng); str.append("' " , " "); 
(?i:Trunc) 	 ECHO; str.append("\'"); str.append(yytext,yytext+yyleng); str.append("' " , " "); 
(?i:Round) 	 ECHO; str.append("\'"); str.append(yytext,yytext+yyleng); str.append("' " , " "); 
(?i:Pack) 	 ECHO; str.append("\'"); str.append(yytext,yytext+yyleng); str.append("' " , " "); 
(?i:Unpack) 	 ECHO; str.append("\'"); str.append(yytext,yytext+yyleng); str.append("' " , " "); 
(?i:Ord) 	 ECHO; str.append("\'"); str.append(yytext,yytext+yyleng); str.append("' " , " "); 
(?i:Chr) 	 ECHO; str.append("\'"); str.append(yytext,yytext+yyleng); str.append("' " , " "); 
(?i:Succ) 	 ECHO; str.append("\'"); str.append(yytext,yytext+yyleng); str.append("' " , " "); 
(?i:Pred) 	 ECHO; str.append("\'"); str.append(yytext,yytext+yyleng); str.append("' " , " "); 
(?i:Odd) 	 ECHO; str.append("\'"); str.append(yytext,yytext+yyleng); str.append("' " , " "); 
(?i:Eof) 	 ECHO; str.append("\'"); str.append(yytext,yytext+yyleng); str.append("' " , " "); 
(?i:Eoln) 	 ECHO; str.append("\'"); str.append(yytext,yytext+yyleng); str.append("' " , " "); 
(?i:Asmname) 	 ECHO; str.append("\'"); str.append(yytext,yytext+yyleng); str.append("' " , " "); 
(?i:C) 	 ECHO; str.append("\'"); str.append(yytext,yytext+yyleng); str.append("' " , " "); 
(?i:C_language) 	 ECHO; str.append("\'"); str.append(yytext,yytext+yyleng); str.append("' " , " "); 
(?i:Forward) 	 ECHO; str.append("\'"); str.append(yytext,yytext+yyleng); str.append("' " , " "); 
(?i:External) 	 ECHO; str.append("\'"); str.append(yytext,yytext+yyleng); str.append("' " , " "); 
(?i:Extern) 	 ECHO; str.append("\'"); str.append(yytext,yytext+yyleng); str.append("' " , " "); 
(?i:Standardoutput) 	 ECHO; str.append("\'"); str.append(yytext,yytext+yyleng); str.append("' " , " "); 
(?i:Standardinput) 	 ECHO; str.append("\'"); str.append(yytext,yytext+yyleng); str.append("' " , " "); 
(?i:Override) 	 ECHO; str.append("\'"); str.append(yytext,yytext+yyleng); str.append("' " , " "); 
(?i:Maxchar) 	 ECHO; str.append("\'"); str.append(yytext,yytext+yyleng); str.append("' " , " "); 
(?i:Maxreal) 	 ECHO; str.append("\'"); str.append(yytext,yytext+yyleng); str.append("' " , " "); 
(?i:Minreal) 	 ECHO; str.append("\'"); str.append(yytext,yytext+yyleng); str.append("' " , " "); 
(?i:Epsreal) 	 ECHO; str.append("\'"); str.append(yytext,yytext+yyleng); str.append("' " , " "); 
(?i:Gettimestamp) 	 ECHO; str.append("\'"); str.append(yytext,yytext+yyleng); str.append("' " , " "); 
(?i:Date) 	 ECHO; str.append("\'"); str.append(yytext,yytext+yyleng); str.append("' " , " "); 
(?i:Time) 	 ECHO; str.append("\'"); str.append(yytext,yytext+yyleng); str.append("' " , " "); 
(?i:Halt) 	 ECHO; str.append("\'"); str.append(yytext,yytext+yyleng); str.append("' " , " "); 
(?i:Extend) 	 ECHO; str.append("\'"); str.append(yytext,yytext+yyleng); str.append("' " , " "); 
(?i:Seekwrite) 	 ECHO; str.append("\'"); str.append(yytext,yytext+yyleng); str.append("' " , " "); 
(?i:Seekread) 	 ECHO; str.append("\'"); str.append(yytext,yytext+yyleng); str.append("' " , " "); 
(?i:Seekupdate) 	 ECHO; str.append("\'"); str.append(yytext,yytext+yyleng); str.append("' " , " "); 
(?i:Empty) 	 ECHO; str.append("\'"); str.append(yytext,yytext+yyleng); str.append("' " , " "); 
(?i:Update) 	 ECHO; str.append("\'"); str.append(yytext,yytext+yyleng); str.append("' " , " "); 
(?i:Position) 	 ECHO; str.append("\'"); str.append(yytext,yytext+yyleng); str.append("' " , " "); 
(?i:Lastposition) 	 ECHO; str.append("\'"); str.append(yytext,yytext+yyleng); str.append("' " , " "); 
(?i:Re) 	 ECHO; str.append("\'"); str.append(yytext,yytext+yyleng); str.append("' " , " "); 
(?i:Im) 	 ECHO; str.append("\'"); str.append(yytext,yytext+yyleng); str.append("' " , " "); 
(?i:Cmplx) 	 ECHO; str.append("\'"); str.append(yytext,yytext+yyleng); str.append("' " , " "); 
(?i:Card) 	 ECHO; str.append("\'"); str.append(yytext,yytext+yyleng); str.append("' " , " "); 
(?i:Arg) 	 ECHO; str.append("\'"); str.append(yytext,yytext+yyleng); str.append("' " , " "); 
(?i:Bind) 	 ECHO; str.append("\'"); str.append(yytext,yytext+yyleng); str.append("' " , " "); 
(?i:Unbind) 	 ECHO; str.append("\'"); str.append(yytext,yytext+yyleng); str.append("' " , " "); 
(?i:Binding) 	 ECHO; str.append("\'"); str.append(yytext,yytext+yyleng); str.append("' " , " "); 
(?i:Polar) 	 ECHO; str.append("\'"); str.append(yytext,yytext+yyleng); str.append("' " , " "); 
(?i:Readstr) 	 ECHO; str.append("\'"); str.append(yytext,yytext+yyleng); str.append("' " , " "); 
(?i:Writestr) 	 ECHO; str.append("\'"); str.append(yytext,yytext+yyleng); str.append("' " , " "); 
(?i:Length) 	 ECHO; str.append("\'"); str.append(yytext,yytext+yyleng); str.append("' " , " "); 
(?i:Index) 	 ECHO; str.append("\'"); str.append(yytext,yytext+yyleng); str.append("' " , " "); 
(?i:Substr) 	 ECHO; str.append("\'"); str.append(yytext,yytext+yyleng); str.append("' " , " "); 
(?i:Trim) 	 ECHO; str.append("\'"); str.append(yytext,yytext+yyleng); str.append("' " , " "); 
(?i:Eq) 	 ECHO; str.append("\'"); str.append(yytext,yytext+yyleng); str.append("' " , " "); 
(?i:Lt) 	 ECHO; str.append("\'"); str.append(yytext,yytext+yyleng); str.append("' " , " "); 
(?i:Gt) 	 ECHO; str.append("\'"); str.append(yytext,yytext+yyleng); str.append("' " , " "); 
(?i:Ne) 	 ECHO; str.append("\'"); str.append(yytext,yytext+yyleng); str.append("' " , " "); 
(?i:Le) 	 ECHO; str.append("\'"); str.append(yytext,yytext+yyleng); str.append("' " , " "); 
(?i:Ge) 	 ECHO; str.append("\'"); str.append(yytext,yytext+yyleng); str.append("' " , " "); 
(?i:String) 	 ECHO; str.append("\'"); str.append(yytext,yytext+yyleng); str.append("' " , " "); 
(?i:Copy) 	 ECHO; str.append("\'"); str.append(yytext,yytext+yyleng); str.append("' " , " "); 
(?i:Null) 	 ECHO; str.append("\'"); str.append(yytext,yytext+yyleng); str.append("' " , " "); 
(?i:Root) 	 ECHO; str.append("\'"); str.append(yytext,yytext+yyleng); str.append("' " , " "); 
(?i:Textwritable) 	 ECHO; str.append("\'"); str.append(yytext,yytext+yyleng); str.append("' " , " "); 
(?i:Self) 	 ECHO; str.append("\'"); str.append(yytext,yytext+yyleng); str.append("' " , " "); 
(?i:GetMem) 	 ECHO; str.append("\'"); str.append(yytext,yytext+yyleng); str.append("' " , " "); 
(?i:FreeMem) 	 ECHO; str.append("\'"); str.append(yytext,yytext+yyleng); str.append("' " , " "); 
(?i:Inc) 	 ECHO; str.append("\'"); str.append(yytext,yytext+yyleng); str.append("' " , " "); 
(?i:Dec) 	 ECHO; str.append("\'"); str.append(yytext,yytext+yyleng); str.append("' " , " "); 
(?i:Static) 	 ECHO; str.append("\'"); str.append(yytext,yytext+yyleng); str.append("' " , " "); 
(?i:__const__) 	 ECHO; str.append("\'"); str.append(yytext,yytext+yyleng); str.append("' " , " "); 
(?i:__external__) 	 ECHO; str.append("\'"); str.append(yytext,yytext+yyleng); str.append("' " , " "); 
(?i:__inline__) 	 ECHO; str.append("\'"); str.append(yytext,yytext+yyleng); str.append("' " , " "); 
(?i:__static__) 	 ECHO; str.append("\'"); str.append(yytext,yytext+yyleng); str.append("' " , " "); 
(?i:__volatile__) 	 ECHO; str.append("\'"); str.append(yytext,yytext+yyleng); str.append("' " , " "); 
(?i:__byte__) 	 ECHO; str.append("\'"); str.append(yytext,yytext+yyleng); str.append("' " , " "); 
(?i:__short__) 	 ECHO; str.append("\'"); str.append(yytext,yytext+yyleng); str.append("' " , " "); 
(?i:__long__) 	 ECHO; str.append("\'"); str.append(yytext,yytext+yyleng); str.append("' " , " "); 
(?i:__longlong__) 	 ECHO; str.append("\'"); str.append(yytext,yytext+yyleng); str.append("' " , " "); 
(?i:__unsigned__) 	 ECHO; str.append("\'"); str.append(yytext,yytext+yyleng); str.append("' " , " "); 
(?i:Asm) 	 ECHO; str.append("\'"); str.append(yytext,yytext+yyleng); str.append("' " , " "); 
(?i:Alignof) 	 ECHO; str.append("\'"); str.append(yytext,yytext+yyleng); str.append("' " , " "); 
(?i:Break) 	 ECHO; str.append("\'"); str.append(yytext,yytext+yyleng); str.append("' " , " "); 
(?i:Continue) 	 ECHO; str.append("\'"); str.append(yytext,yytext+yyleng); str.append("' " , " "); 
(?i:Return) 	 ECHO; str.append("\'"); str.append(yytext,yytext+yyleng); str.append("' " , " "); 
(?i:Sizeof) 	 ECHO; str.append("\'"); str.append(yytext,yytext+yyleng); str.append("' " , " "); 
(?i:Max) 	 ECHO; str.append("\'"); str.append(yytext,yytext+yyleng); str.append("' " , " "); 
(?i:Min) 	 ECHO; str.append("\'"); str.append(yytext,yytext+yyleng); str.append("' " , " "); 
(?i:Conjugate) 	 ECHO; str.append("\'"); str.append(yytext,yytext+yyleng); str.append("' " , " "); 
(?i:Mark) 	 ECHO; str.append("\'"); str.append(yytext,yytext+yyleng); str.append("' " , " "); 
(?i:Release) 	 ECHO; str.append("\'"); str.append(yytext,yytext+yyleng); str.append("' " , " "); 
(?i:Default) 	 ECHO; str.append("\'"); str.append(yytext,yytext+yyleng); str.append("' " , " "); 
(?i:Others) 	 ECHO; str.append("\'"); str.append(yytext,yytext+yyleng); str.append("' " , " "); 
(?i:Close) 	 ECHO; str.append("\'"); str.append(yytext,yytext+yyleng); str.append("' " , " "); 
(?i:Definesize) 	 ECHO; str.append("\'"); str.append(yytext,yytext+yyleng); str.append("' " , " "); 
(?i:Integer) 	 ECHO; str.append("\'"); str.append(yytext,yytext+yyleng); str.append("' " , " "); 
(?i:Real) 	 ECHO; str.append("\'"); str.append(yytext,yytext+yyleng); str.append("' " , " "); 
(?i:Boolean) 	 ECHO; str.append("\'"); str.append(yytext,yytext+yyleng); str.append("' " , " "); 
(?i:Char) 	 ECHO; str.append("\'"); str.append(yytext,yytext+yyleng); str.append("' " , " "); 
(?i:Text) 	 ECHO; str.append("\'"); str.append(yytext,yytext+yyleng); str.append("' " , " "); 
(?i:Complex) 	 ECHO; str.append("\'"); str.append(yytext,yytext+yyleng); str.append("' " , " "); 
(?i:__void__) 	 ECHO; str.append("\'"); str.append(yytext,yytext+yyleng); str.append("' " , " "); 
(?i:Void) 	 ECHO; str.append("\'"); str.append(yytext,yytext+yyleng); str.append("' " , " "); 
(?i:__cstring__) 	 ECHO; str.append("\'"); str.append(yytext,yytext+yyleng); str.append("' " , " "); 
(?i:Timestamp) 	 ECHO; str.append("\'"); str.append(yytext,yytext+yyleng); str.append("' " , " "); 
(?i:Bindingtype) 	 ECHO; str.append("\'"); str.append(yytext,yytext+yyleng); str.append("' " , " "); 
 	 ECHO; str.append("\'"); str.append(yytext,yytext+yyleng); str.append("' " , " "); 
 	 ECHO; str.append("\'"); str.append(yytext,yytext+yyleng); str.append("' " , " "); 
 	 ECHO; str.append("\'"); str.append(yytext,yytext+yyleng); str.append("' " , " "); 
 	 ECHO; str.append("\'"); str.append(yytext,yytext+yyleng); str.append("' " , " "); 
 	 ECHO; str.append("\'"); str.append(yytext,yytext+yyleng); str.append("' " , " "); 
